{
    // VS Code

    "editor.codeActionsOnSave": {
        "source.fixAll.markdownlint": true
    },
    "explorer.confirmDelete": false,
    "files.autoSave": "onFocusChange",
    "window.openFoldersInNewWindow": "on",
    "workbench.colorTheme": "Default Dark+",

    // Extensions

    //// Markdown All In One
    "markdown.extension.toc.levels": "2..6",

    //// markdownlint
    "markdownlint.config": {
        "MD012": {
            "maximum": 2
        },
        "MD024": false
    },

    // auto to come, here to easily find auto generation
    "autotocome": {},
}